;*************************************************************
;*************************************************************
;**                                                         **
;**                    REAL ^ ...                           **
;**                    ... ^ REAL                           **
;**                                                         **
;*************************************************************
;*************************************************************
In: FL_SPCRES=0 FL_CPXRES=0 SD=0 RM=0 IM=2compl SS=4 WS=64
Func: fnPower



;==================================================================
; Real  ^ Long Integer      see in power_longInteger.txt
; Real  ^ Real              see in power_real.txt
; Real  ^ Complex           see in power_complex.txt
; Real  ^ Time              see in power_time.txt
; Real  ^ Date              see in power_date.txt
; Real  ^ String            see in power_string.txt
; Real  ^ Real Matrix       see in power_realMatrix.txt
; Real  ^ Complex Matrix    see in power_complexMatrix.txt
; Real  ^ Short Integer     see in power_shortInteger.txt
;==================================================================



;=======================================
; Real ^ Real --> Real
;=======================================
In:  FL_ASLIFT=0 FL_CPXRES=0 RY=Real:"1.254554312028456" RX=Real:"123.456"
Out: EC=0 FL_CPXRES=0 FL_ASLIFT=1 RL=Real:"123.456" RX=Real:"1442499588942.7648914982985183005495382299730804289548098958693"

In:  AM=DEG FL_CPXRES=0 FL_ASLIFT=0 RY=Real:"2" RX=Real:"123.4":DEG
Out: EC=0 FL_CPXRES=0 FL_ASLIFT=1 RL=Real:"123.4":DEG RX=Real:"14031414845271966722579997222050159552.088081736449456307453811"

In:  AM=DMS FL_CPXRES=0 FL_ASLIFT=0 RY=Real:"2" RX=Real:"123.4":DEG
Out: EC=0 FL_CPXRES=0 FL_ASLIFT=1 RL=Real:"123.4":DEG RX=Real:"14031414845271966722579997222050159552.088081736449456307453811"

In:  AM=GRAD FL_CPXRES=0 FL_ASLIFT=0 RY=Real:"2" RX=Real:"123.4":DEG
Out: EC=0 FL_CPXRES=0 FL_ASLIFT=1 RL=Real:"123.4":DEG RX=Real:"14031414845271966722579997222050159552.088081736449456307453811"

In:  AM=RAD FL_CPXRES=0 FL_ASLIFT=0 RY=Real:"2" RX=Real:"123.4":DEG
Out: EC=0 FL_CPXRES=0 FL_ASLIFT=1 RL=Real:"123.4":DEG RX=Real:"14031414845271966722579997222050159552.088081736449456307453811"

In:  AM=MULTPI FL_CPXRES=0 FL_ASLIFT=0 RY=Real:"2" RX=Real:"123.4":DEG
Out: EC=0 FL_CPXRES=0 FL_ASLIFT=1 RL=Real:"123.4":DEG RX=Real:"14031414845271966722579997222050159552.088081736449456307453811"

In:  AM=DEG FL_CPXRES=0 FL_ASLIFT=0 RY=Real:"2" RX=Real:"123.453099":DMS
Out: EC=0 FL_CPXRES=0 FL_ASLIFT=1 RL=Real:"123.453099":DMS RX=Real:"14557468420784632186278091172514191357.60714127587936564875537"

In:  AM=DMS FL_CPXRES=0 FL_ASLIFT=0 RY=Real:"2" RX=Real:"123.453099":DMS
Out: EC=0 FL_CPXRES=0 FL_ASLIFT=1 RL=Real:"123.453099":DMS RX=Real:"14557468420784632186278091172514191357.60714127587936564875537"

In:  AM=GRAD FL_CPXRES=0 FL_ASLIFT=0 RY=Real:"2" RX=Real:"123.453099":DMS
Out: EC=0 FL_CPXRES=0 FL_ASLIFT=1 RL=Real:"123.453099":DMS RX=Real:"14557468420784632186278091172514191357.60714127587936564875537"

In:  AM=RAD FL_CPXRES=0 FL_ASLIFT=0 RY=Real:"2" RX=Real:"123.453099":DMS
Out: EC=0 FL_CPXRES=0 FL_ASLIFT=1 RL=Real:"123.453099":DMS RX=Real:"14557468420784632186278091172514191357.60714127587936564875537"

In:  AM=MULTPI FL_CPXRES=0 FL_ASLIFT=0 RY=Real:"2" RX=Real:"123.453099":DMS
Out: EC=0 FL_CPXRES=0 FL_ASLIFT=1 RL=Real:"123.453099":DMS RX=Real:"14557468420784632186278091172514191357.60714127587936564875537"

In:  AM=DEG FL_CPXRES=0 FL_ASLIFT=0 RY=Real:"2" RX=Real:"123.453099":GRAD
Out: EC=0 FL_CPXRES=0 FL_ASLIFT=1 RL=Real:"123.453099":GRAD RX=Real:"14557468420784632186278091172514191357.60714127587936564875537"

In:  AM=DMS FL_CPXRES=0 FL_ASLIFT=0 RY=Real:"2" RX=Real:"123.453099":GRAD
Out: EC=0 FL_CPXRES=0 FL_ASLIFT=1 RL=Real:"123.453099":GRAD RX=Real:"14557468420784632186278091172514191357.60714127587936564875537"

In:  AM=GRAD FL_CPXRES=0 FL_ASLIFT=0 RY=Real:"2" RX=Real:"123.453099":GRAD
Out: EC=0 FL_CPXRES=0 FL_ASLIFT=1 RL=Real:"123.453099":GRAD RX=Real:"14557468420784632186278091172514191357.60714127587936564875537"

In:  AM=RAD FL_CPXRES=0 FL_ASLIFT=0 RY=Real:"2" RX=Real:"123.453099":GRAD
Out: EC=0 FL_CPXRES=0 FL_ASLIFT=1 RL=Real:"123.453099":GRAD RX=Real:"14557468420784632186278091172514191357.60714127587936564875537"

In:  AM=MULTPI FL_CPXRES=0 FL_ASLIFT=0 RY=Real:"2" RX=Real:"123.453099":GRAD
Out: EC=0 FL_CPXRES=0 FL_ASLIFT=1 RL=Real:"123.453099":GRAD RX=Real:"14557468420784632186278091172514191357.60714127587936564875537"

In:  AM=DEG FL_CPXRES=0 FL_ASLIFT=0 RY=Real:"2" RX=Real:"3.453099789":RAD
Out: EC=0 FL_CPXRES=0 FL_ASLIFT=1 RL=Real:"3.453099789":RAD RX=Real:"10.951827999657763014974112684628139432600036141997959332555989"

In:  AM=DMS FL_CPXRES=0 FL_ASLIFT=0 RY=Real:"2" RX=Real:"3.453099789":RAD
Out: EC=0 FL_CPXRES=0 FL_ASLIFT=1 RL=Real:"3.453099789":RAD RX=Real:"10.951827999657763014974112684628139432600036141997959332555989"

In:  AM=GRAD FL_CPXRES=0 FL_ASLIFT=0 RY=Real:"2" RX=Real:"3.453099789":RAD
Out: EC=0 FL_CPXRES=0 FL_ASLIFT=1 RL=Real:"3.453099789":RAD RX=Real:"10.951827999657763014974112684628139432600036141997959332555989"

In:  AM=RAD FL_CPXRES=0 FL_ASLIFT=0 RY=Real:"2" RX=Real:"3.453099789":RAD
Out: EC=0 FL_CPXRES=0 FL_ASLIFT=1 RL=Real:"3.453099789":RAD RX=Real:"10.951827999657763014974112684628139432600036141997959332555989"

In:  AM=MULTPI FL_CPXRES=0 FL_ASLIFT=0 RY=Real:"2" RX=Real:"3.453099789":RAD
Out: EC=0 FL_CPXRES=0 FL_ASLIFT=1 RL=Real:"3.453099789":RAD RX=Real:"10.951827999657763014974112684628139432600036141997959332555989"

In:  AM=DEG FL_CPXRES=0 FL_ASLIFT=0 RY=Real:"2" RX=Real:"3.453099789":MULTPI
Out: EC=0 FL_CPXRES=0 FL_ASLIFT=1 RL=Real:"3.453099789":MULTPI RX=Real:"10.951827999657763014974112684628139432600036141997959332555989"

In:  AM=DMS FL_CPXRES=0 FL_ASLIFT=0 RY=Real:"2" RX=Real:"3.453099789":MULTPI
Out: EC=0 FL_CPXRES=0 FL_ASLIFT=1 RL=Real:"3.453099789":MULTPI RX=Real:"10.951827999657763014974112684628139432600036141997959332555989"

In:  AM=GRAD FL_CPXRES=0 FL_ASLIFT=0 RY=Real:"2" RX=Real:"3.453099789":MULTPI
Out: EC=0 FL_CPXRES=0 FL_ASLIFT=1 RL=Real:"3.453099789":MULTPI RX=Real:"10.951827999657763014974112684628139432600036141997959332555989"

In:  AM=RAD FL_CPXRES=0 FL_ASLIFT=0 RY=Real:"2" RX=Real:"3.453099789":MULTPI
Out: EC=0 FL_CPXRES=0 FL_ASLIFT=1 RL=Real:"3.453099789":MULTPI RX=Real:"10.951827999657763014974112684628139432600036141997959332555989"

In:  AM=MULTPI FL_CPXRES=0 FL_ASLIFT=0 RY=Real:"2" RX=Real:"3.453099789":MULTPI
Out: EC=0 FL_CPXRES=0 FL_ASLIFT=1 RL=Real:"3.453099789":MULTPI RX=Real:"10.951827999657763014974112684628139432600036141997959332555989"

In:  AM=DEG FL_CPXRES=0 FL_ASLIFT=0 RY=Real:"123.4":DEG RX=Real:"2.3"
Out: EC=0 FL_CPXRES=0 FL_ASLIFT=1 RL=Real:"2.3" RX=Real:"64569.119966192973485694375501506450306377735926486668276753201"

In:  AM=DMS FL_CPXRES=0 FL_ASLIFT=0 RY=Real:"123.4":DEG RX=Real:"2.3"
Out: EC=0 FL_CPXRES=0 FL_ASLIFT=1 RL=Real:"2.3" RX=Real:"64569.119966192973485694375501506450306377735926486668276753201"

In:  AM=GRAD FL_CPXRES=0 FL_ASLIFT=0 RY=Real:"123.4":DEG RX=Real:"2.3"
Out: EC=0 FL_CPXRES=0 FL_ASLIFT=1 RL=Real:"2.3" RX=Real:"64569.119966192973485694375501506450306377735926486668276753201"

In:  AM=RAD FL_CPXRES=0 FL_ASLIFT=0 RY=Real:"123.4":DEG RX=Real:"2.3"
Out: EC=0 FL_CPXRES=0 FL_ASLIFT=1 RL=Real:"2.3" RX=Real:"64569.119966192973485694375501506450306377735926486668276753201"

In:  AM=MULTPI FL_CPXRES=0 FL_ASLIFT=0 RY=Real:"123.4":DEG RX=Real:"2.3"
Out: EC=0 FL_CPXRES=0 FL_ASLIFT=1 RL=Real:"2.3" RX=Real:"64569.119966192973485694375501506450306377735926486668276753201"

In:  AM=DEG FL_CPXRES=0 FL_ASLIFT=0 RY=Real:"123.453099":DMS RX=Real:"2.3"
Out: EC=0 FL_CPXRES=0 FL_ASLIFT=1 RL=Real:"2.3" RX=Real:"64633.041228683275350669180343093409004731824449453617244621521"

In:  AM=DMS FL_CPXRES=0 FL_ASLIFT=0 RY=Real:"123.453099":DMS RX=Real:"2.3"
Out: EC=0 FL_CPXRES=0 FL_ASLIFT=1 RL=Real:"2.3" RX=Real:"64633.041228683275350669180343093409004731824449453617244621521"

In:  AM=GRAD FL_CPXRES=0 FL_ASLIFT=0 RY=Real:"123.453099":DMS RX=Real:"2.3"
Out: EC=0 FL_CPXRES=0 FL_ASLIFT=1 RL=Real:"2.3" RX=Real:"64633.041228683275350669180343093409004731824449453617244621521"

In:  AM=RAD FL_CPXRES=0 FL_ASLIFT=0 RY=Real:"123.453099":DMS RX=Real:"2.3"
Out: EC=0 FL_CPXRES=0 FL_ASLIFT=1 RL=Real:"2.3" RX=Real:"64633.041228683275350669180343093409004731824449453617244621521"

In:  AM=MULTPI FL_CPXRES=0 FL_ASLIFT=0 RY=Real:"123.453099":DMS RX=Real:"2.3"
Out: EC=0 FL_CPXRES=0 FL_ASLIFT=1 RL=Real:"2.3" RX=Real:"64633.041228683275350669180343093409004731824449453617244621521"

In:  AM=DEG FL_CPXRES=0 FL_ASLIFT=0 RY=Real:"123.453099":GRAD RX=Real:"2.3"
Out: EC=0 FL_CPXRES=0 FL_ASLIFT=1 RL=Real:"2.3" RX=Real:"64633.041228683275350669180343093409004731824449453617244621521"

In:  AM=DMS FL_CPXRES=0 FL_ASLIFT=0 RY=Real:"123.453099":GRAD RX=Real:"2.3"
Out: EC=0 FL_CPXRES=0 FL_ASLIFT=1 RL=Real:"2.3" RX=Real:"64633.041228683275350669180343093409004731824449453617244621521"

In:  AM=GRAD FL_CPXRES=0 FL_ASLIFT=0 RY=Real:"123.453099":GRAD RX=Real:"2.3"
Out: EC=0 FL_CPXRES=0 FL_ASLIFT=1 RL=Real:"2.3" RX=Real:"64633.041228683275350669180343093409004731824449453617244621521"

In:  AM=RAD FL_CPXRES=0 FL_ASLIFT=0 RY=Real:"123.453099":GRAD RX=Real:"2.3"
Out: EC=0 FL_CPXRES=0 FL_ASLIFT=1 RL=Real:"2.3" RX=Real:"64633.041228683275350669180343093409004731824449453617244621521"

In:  AM=MULTPI FL_CPXRES=0 FL_ASLIFT=0 RY=Real:"123.453099":GRAD RX=Real:"2.3"
Out: EC=0 FL_CPXRES=0 FL_ASLIFT=1 RL=Real:"2.3" RX=Real:"64633.041228683275350669180343093409004731824449453617244621521"

In:  AM=DEG FL_CPXRES=0 FL_ASLIFT=0 RY=Real:"3.453099789":RAD RX=Real:"2.3"
Out: EC=0 FL_CPXRES=0 FL_ASLIFT=1 RL=Real:"2.3" RX=Real:"17.293424275737820762398742375635115164563842366156681469987571"

In:  AM=DMS FL_CPXRES=0 FL_ASLIFT=0 RY=Real:"3.453099789":RAD RX=Real:"2.3"
Out: EC=0 FL_CPXRES=0 FL_ASLIFT=1 RL=Real:"2.3" RX=Real:"17.293424275737820762398742375635115164563842366156681469987571"

In:  AM=GRAD FL_CPXRES=0 FL_ASLIFT=0 RY=Real:"3.453099789":RAD RX=Real:"2.3"
Out: EC=0 FL_CPXRES=0 FL_ASLIFT=1 RL=Real:"2.3" RX=Real:"17.293424275737820762398742375635115164563842366156681469987571"

In:  AM=RAD FL_CPXRES=0 FL_ASLIFT=0 RY=Real:"3.453099789":RAD RX=Real:"2.3"
Out: EC=0 FL_CPXRES=0 FL_ASLIFT=1 RL=Real:"2.3" RX=Real:"17.293424275737820762398742375635115164563842366156681469987571"

In:  AM=MULTPI FL_CPXRES=0 FL_ASLIFT=0 RY=Real:"3.453099789":RAD RX=Real:"2.3"
Out: EC=0 FL_CPXRES=0 FL_ASLIFT=1 RL=Real:"2.3" RX=Real:"17.293424275737820762398742375635115164563842366156681469987571"

In:  AM=DEG FL_CPXRES=0 FL_ASLIFT=0 RY=Real:"3.453099789":MULTPI RX=Real:"2.3"
Out: EC=0 FL_CPXRES=0 FL_ASLIFT=1 RL=Real:"2.3" RX=Real:"17.293424275737820762398742375635115164563842366156681469987571"

In:  AM=DMS FL_CPXRES=0 FL_ASLIFT=0 RY=Real:"3.453099789":MULTPI RX=Real:"2.3"
Out: EC=0 FL_CPXRES=0 FL_ASLIFT=1 RL=Real:"2.3" RX=Real:"17.293424275737820762398742375635115164563842366156681469987571"

In:  AM=GRAD FL_CPXRES=0 FL_ASLIFT=0 RY=Real:"3.453099789":MULTPI RX=Real:"2.3"
Out: EC=0 FL_CPXRES=0 FL_ASLIFT=1 RL=Real:"2.3" RX=Real:"17.293424275737820762398742375635115164563842366156681469987571"

In:  AM=RAD FL_CPXRES=0 FL_ASLIFT=0 RY=Real:"3.453099789":MULTPI RX=Real:"2.3"
Out: EC=0 FL_CPXRES=0 FL_ASLIFT=1 RL=Real:"2.3" RX=Real:"17.293424275737820762398742375635115164563842366156681469987571"

In:  AM=MULTPI FL_CPXRES=0 FL_ASLIFT=0 RY=Real:"3.453099789":MULTPI RX=Real:"2.3"
Out: EC=0 FL_CPXRES=0 FL_ASLIFT=1 RL=Real:"2.3" RX=Real:"17.293424275737820762398742375635115164563842366156681469987571"

In:  AM=DEG FL_CPXRES=0 FL_ASLIFT=0 RY=Real:"123.4":DEG RX=Real:"2.7":DEG
Out: EC=0 FL_CPXRES=0 FL_ASLIFT=1 RL=Real:"2.7":DEG RX=Real:"443150.18116238582660528931680372757762076464549970565670246427"

In:  AM=DMS FL_CPXRES=0 FL_ASLIFT=0 RY=Real:"123.4":DEG RX=Real:"2.7":DMS
Out: EC=0 FL_CPXRES=0 FL_ASLIFT=1 RL=Real:"2.7":DMS RX=Real:"443150.18116238582660528931680372757762076464549970565670246427"

In:  AM=GRAD FL_CPXRES=0 FL_ASLIFT=0 RY=Real:"123.4":DEG RX=Real:"2.7":GRAD
Out: EC=0 FL_CPXRES=0 FL_ASLIFT=1 RL=Real:"2.7":GRAD RX=Real:"443150.18116238582660528931680372757762076464549970565670246427"

In:  AM=RAD FL_CPXRES=0 FL_ASLIFT=0 RY=Real:"123.4":DEG RX=Real:"2.7":RAD
Out: EC=0 FL_CPXRES=0 FL_ASLIFT=1 RL=Real:"2.7":RAD RX=Real:"443150.18116238582660528931680372757762076464549970565670246427"

In:  AM=MULTPI FL_CPXRES=0 FL_ASLIFT=0 RY=Real:"123.4":DEG RX=Real:"2.7":MULTPI
Out: EC=0 FL_CPXRES=0 FL_ASLIFT=1 RL=Real:"2.7":MULTPI RX=Real:"443150.18116238582660528931680372757762076464549970565670246427"

In:  AM=DEG FL_CPXRES=0 FL_ASLIFT=0 RY=Real:"123.453099":DMS RX=Real:"2.7":DEG
Out: EC=0 FL_CPXRES=0 FL_ASLIFT=1 RL=Real:"2.7":DEG RX=Real:"443665.22561047398222160852100733266356906923982990188470896682"

In:  AM=DMS FL_CPXRES=0 FL_ASLIFT=0 RY=Real:"123.453099":DMS RX=Real:"2.7":DMS
Out: EC=0 FL_CPXRES=0 FL_ASLIFT=1 RL=Real:"2.7":DMS RX=Real:"443665.22561047398222160852100733266356906923982990188470896682"

In:  AM=GRAD FL_CPXRES=0 FL_ASLIFT=0 RY=Real:"123.453099":DMS RX=Real:"2.7":GRAD
Out: EC=0 FL_CPXRES=0 FL_ASLIFT=1 RL=Real:"2.7":GRAD RX=Real:"443665.22561047398222160852100733266356906923982990188470896682"

In:  AM=RAD FL_CPXRES=0 FL_ASLIFT=0 RY=Real:"123.453099":DMS RX=Real:"2.7":RAD
Out: EC=0 FL_CPXRES=0 FL_ASLIFT=1 RL=Real:"2.7":RAD RX=Real:"443665.22561047398222160852100733266356906923982990188470896682"

In:  AM=MULTPI FL_CPXRES=0 FL_ASLIFT=0 RY=Real:"123.453099":DMS RX=Real:"2.7":MULTPI
Out: EC=0 FL_CPXRES=0 FL_ASLIFT=1 RL=Real:"2.7":MULTPI RX=Real:"443665.22561047398222160852100733266356906923982990188470896682"

In:  AM=DEG FL_CPXRES=0 FL_ASLIFT=0 RY=Real:"123.453099":GRAD RX=Real:"2.7":DEG
Out: EC=0 FL_CPXRES=0 FL_ASLIFT=1 RL=Real:"2.7":DEG RX=Real:"443665.22561047398222160852100733266356906923982990188470896682"

In:  AM=DMS FL_CPXRES=0 FL_ASLIFT=0 RY=Real:"123.453099":GRAD RX=Real:"2.7":DMS
Out: EC=0 FL_CPXRES=0 FL_ASLIFT=1 RL=Real:"2.7":DMS RX=Real:"443665.22561047398222160852100733266356906923982990188470896682"

In:  AM=GRAD FL_CPXRES=0 FL_ASLIFT=0 RY=Real:"123.453099":GRAD RX=Real:"2.7":GRAD
Out: EC=0 FL_CPXRES=0 FL_ASLIFT=1 RL=Real:"2.7":GRAD RX=Real:"443665.22561047398222160852100733266356906923982990188470896682"

In:  AM=RAD FL_CPXRES=0 FL_ASLIFT=0 RY=Real:"123.453099":GRAD RX=Real:"2.7":RAD
Out: EC=0 FL_CPXRES=0 FL_ASLIFT=1 RL=Real:"2.7":RAD RX=Real:"443665.22561047398222160852100733266356906923982990188470896682"

In:  AM=MULTPI FL_CPXRES=0 FL_ASLIFT=0 RY=Real:"123.453099":GRAD RX=Real:"2.7":MULTPI
Out: EC=0 FL_CPXRES=0 FL_ASLIFT=1 RL=Real:"2.7":MULTPI RX=Real:"443665.22561047398222160852100733266356906923982990188470896682"

In:  AM=DEG FL_CPXRES=0 FL_ASLIFT=0 RY=Real:"3.453099789":RAD RX=Real:"2.7":DEG
Out: EC=0 FL_CPXRES=0 FL_ASLIFT=1 RL=Real:"2.7":DEG RX=Real:"28.38995133894778374444856737297980856562167957129659065617538"

In:  AM=DMS FL_CPXRES=0 FL_ASLIFT=0 RY=Real:"3.453099789":RAD RX=Real:"2.7":DMS
Out: EC=0 FL_CPXRES=0 FL_ASLIFT=1 RL=Real:"2.7":DMS RX=Real:"28.38995133894778374444856737297980856562167957129659065617538"

In:  AM=GRAD FL_CPXRES=0 FL_ASLIFT=0 RY=Real:"3.453099789":RAD RX=Real:"2.7":GRAD
Out: EC=0 FL_CPXRES=0 FL_ASLIFT=1 RL=Real:"2.7":GRAD RX=Real:"28.38995133894778374444856737297980856562167957129659065617538"

In:  AM=RAD FL_CPXRES=0 FL_ASLIFT=0 RY=Real:"3.453099789":RAD RX=Real:"2.7":RAD
Out: EC=0 FL_CPXRES=0 FL_ASLIFT=1 RL=Real:"2.7":RAD RX=Real:"28.38995133894778374444856737297980856562167957129659065617538"

In:  AM=MULTPI FL_CPXRES=0 FL_ASLIFT=0 RY=Real:"3.453099789":RAD RX=Real:"2.7":MULTPI
Out: EC=0 FL_CPXRES=0 FL_ASLIFT=1 RL=Real:"2.7":MULTPI RX=Real:"28.38995133894778374444856737297980856562167957129659065617538"

In:  AM=DEG FL_CPXRES=0 FL_ASLIFT=0 RY=Real:"3.453099789":MULTPI RX=Real:"2.7":DEG
Out: EC=0 FL_CPXRES=0 FL_ASLIFT=1 RL=Real:"2.7":DEG RX=Real:"28.38995133894778374444856737297980856562167957129659065617538"

In:  AM=DMS FL_CPXRES=0 FL_ASLIFT=0 RY=Real:"3.453099789":MULTPI RX=Real:"2.7":DMS
Out: EC=0 FL_CPXRES=0 FL_ASLIFT=1 RL=Real:"2.7":DMS RX=Real:"28.38995133894778374444856737297980856562167957129659065617538"

In:  AM=GRAD FL_CPXRES=0 FL_ASLIFT=0 RY=Real:"3.453099789":MULTPI RX=Real:"2.7":GRAD
Out: EC=0 FL_CPXRES=0 FL_ASLIFT=1 RL=Real:"2.7":GRAD RX=Real:"28.38995133894778374444856737297980856562167957129659065617538"

In:  AM=RAD FL_CPXRES=0 FL_ASLIFT=0 RY=Real:"3.453099789":MULTPI RX=Real:"2.7":RAD
Out: EC=0 FL_CPXRES=0 FL_ASLIFT=1 RL=Real:"2.7":RAD RX=Real:"28.38995133894778374444856737297980856562167957129659065617538"

In:  AM=MULTPI FL_CPXRES=0 FL_ASLIFT=0 RY=Real:"3.453099789":MULTPI RX=Real:"2.7":MULTPI
Out: EC=0 FL_CPXRES=0 FL_ASLIFT=1 RL=Real:"2.7":MULTPI RX=Real:"28.38995133894778374444856737297980856562167957129659065617538"

In:  AM=DEG FL_CPXRES=0 FL_ASLIFT=0 FL_SPCRES=1 RY=Real:"-1" RX=Real:"0.5"
Out: EC=0 FL_CPXRES=0 FL_ASLIFT=1 RL=Real:"0.5" RX=Real:"NaN"

In:  AM=DEG FL_CPXRES=1 FL_ASLIFT=0 FL_SPCRES=0 RY=Real:"-1" RX=Real:"0.5"
Out: EC=0 FL_CPXRES=1 FL_ASLIFT=1 RL=Real:"0.5" RX=Cplx:"0 i 1"



;=======================================
; Real ^ Complex --> Complex
;=======================================
In:  FL_ASLIFT=0 FL_CPXRES=0 RY=Real:"1.254" RX=Cplx:"123.456 i -6.78"
Out: EC=0 FL_CPXRES=1 FL_ASLIFT=1 RL=Cplx:"123.456 i -6.78" RX=Cplx:"49464587020.21163627248839112076333703695337165708528494391301 i -1365009593447.0712449431536510438868748447615151290565406823152"

In:  FL_ASLIFT=0 FL_CPXRES=0 RY=Real:"1.254":DEG RX=Cplx:"1.23456 i -6.78"
Out: EC=0 FL_CPXRES=1 FL_ASLIFT=1 RL=Cplx:"1.23456 i -6.78" RX=Cplx:"0.047888135536504034575377391279415596380094194470740482592417863 i -1.3215063211366105645701185457387635616107619349016956586274085"

;=======================================
; Complex ^ Real --> Complex
;=======================================
In:  FL_ASLIFT=0 FL_CPXRES=0 RY=Cplx:"123.456 i -6.78" RX=Real:"1.254"
Out: EC=0 FL_CPXRES=1 FL_ASLIFT=1 RL=Real:"1.254" RX=Cplx:"419.32206511002553136776271090630529935408444219843452313361978 i -28.894332324191746693523649385779246781101703902081150231351406"

In:  FL_ASLIFT=0 FL_CPXRES=0 RY=Cplx:"1.23456 i -6.78" RX=Real:"1.254":DEG
Out: EC=0 FL_CPXRES=1 FL_ASLIFT=1 RL=Real:"1.254":DEG RX=Cplx:"-1.9382712381619504996777309908652991321175519153316073251293241 i -11.084177900742122954570030539978654932210674382128852817280235"
